<?xml version="1.0" encoding="iso-8859-1"?>
<!-- Generator: Adobe Illustrator 19.0.0, SVG Export Plug-In . SVG Version: 6.00 Build 0)  -->
<svg version="1.1" id="Layer_1" xmlns="http://www.w3.org/2000/svg" xmlns:xlink="http://www.w3.org/1999/xlink" x="0px" y="0px"
	 viewBox="0 0 43.147 49.957" style="enable-background:new 0 0 43.147 49.957;" xml:space="preserve">
<g id="XMLID_689_">
	<path id="XMLID_5418_" style="fill:#EF412E;" d="M18.585,43.195c0,0.197-0.007,3.869-0.007,3.869
		c-0.207,1.172,0.702,2.179,2.027,2.208l3.598-0.032c1.328-0.05,2.455-1.103,2.444-2.317l-0.105-3.728H18.585z"/>
	<polygon id="XMLID_5333_" style="fill:#F9A61A;" points="39.688,14.209 21.793,3.93 3.596,14.693 3.531,36.67 16.397,44.238 
		16.397,41.346 26.897,41.346 26.897,44.54 42.147,35.566 42.147,13.1 	"/>
	
		<polyline id="XMLID_672_" style="fill:none;stroke:#010101;stroke-width:2;stroke-linecap:round;stroke-linejoin:round;stroke-miterlimit:10;" points="
		16.567,44.335 1,35.566 1,13.1 21.541,1 42.148,13.1 42.148,35.566 26.602,44.714 	"/>
	<path id="XMLID_5370_" style="fill:#FFFFFF;" d="M31.936,23.34c0-6.127-5.323-11.011-11.597-10.279
		c-4.544,0.53-8.307,4.152-8.987,8.676c-0.539,3.59,0.769,6.896,3.116,9.117c1.313,1.243,2.098,2.94,2.098,4.748v5.59h10.035v-5.58
		c0-1.848,0.846-3.548,2.175-4.832C30.725,28.899,31.936,26.262,31.936,23.34z"/>
	
		<path id="XMLID_668_" style="fill:none;stroke:#010101;stroke-width:2;stroke-linecap:round;stroke-linejoin:round;stroke-miterlimit:10;" d="
		M26.602,41.192v4.939c0,1.561-1.265,2.826-2.826,2.826h-4.384c-1.561,0-2.826-1.265-2.826-2.826v-4.939"/>
	
		<line id="XMLID_664_" style="fill:none;stroke:#010101;stroke-width:2;stroke-linecap:round;stroke-linejoin:round;stroke-miterlimit:10;" x1="1" y1="13.1" x2="12.288" y2="18.776"/>
	
		<line id="XMLID_662_" style="fill:none;stroke:#010101;stroke-width:2;stroke-linecap:round;stroke-linejoin:round;stroke-miterlimit:10;" x1="1" y1="35.566" x2="12.288" y2="28.706"/>
	<path id="XMLID_1750_" style="fill:#FFFFFF;" d="M21.677,10.444l-0.028,2.263l-5.394,0.971c-2.789,2.518-4.583,5.42-4.918,8.257
		c-0.517,3.414,0.786,6.698,3.184,8.927c1.444,1.254,2.426,2.99,2.512,4.873l0.073,5.898l10.5-2.245l-0.021,3.625l1.417-0.875
		l-0.075-5.652c-0.16-1.715,0.556-3.24,1.821-4.353c1.919-1.723,3.463-4.467,3.744-7.851C34.993,16.84,29.261,10.598,21.677,10.444z
		"/>
	
		<line id="XMLID_665_" style="fill:none;stroke:#010101;stroke-width:2;stroke-linecap:round;stroke-linejoin:round;stroke-miterlimit:10;" x1="30.625" y1="18.296" x2="42.148" y2="13.1"/>
	
		<line id="XMLID_666_" style="fill:none;stroke:#010101;stroke-width:2;stroke-linecap:round;stroke-linejoin:round;stroke-miterlimit:10;" x1="29.844" y1="29.577" x2="42.148" y2="35.566"/>
	
		<line id="XMLID_661_" style="fill:none;stroke:#010101;stroke-width:2;stroke-linecap:round;stroke-linejoin:round;stroke-miterlimit:10;" x1="21.541" y1="1" x2="21.585" y2="12.988"/>
	<path id="XMLID_5278_" style="fill:#1C94D2;" d="M31.365,23.898c-0.399-5.76-5.668-9.423-10.538-8.642
		c-4.871,0.778-7.062,4.196-7.068,7.804c0.002,2.852,0.932,4.927,2.793,6.546c1.06,0.933,1.83,2.567,1.996,4.439l0.107,6.532
		l8.259,0.582l-0.142-5.717c-0.061-1.871,0.709-3.47,1.966-4.641C30.583,29.025,31.625,26.565,31.365,23.898z"/>
	
		<path id="XMLID_670_" style="fill:none;stroke:#010101;stroke-width:2;stroke-linecap:round;stroke-linejoin:round;stroke-miterlimit:10;" d="
		M31.936,23.34c0-6.127-5.323-11.011-11.597-10.279c-4.544,0.53-8.307,4.152-8.987,8.676c-0.539,3.59,0.769,6.896,3.116,9.117
		c1.313,1.243,2.098,2.94,2.098,4.748v5.59h10.035v-5.58c0-1.848,0.846-3.548,2.175-4.832C30.725,28.899,31.936,26.262,31.936,23.34
		z"/>
</g>
</svg>
