<?xml version="1.0" encoding="iso-8859-1"?>
<!-- Generator: Adobe Illustrator 19.0.0, SVG Export Plug-In . SVG Version: 6.00 Build 0)  -->
<svg version="1.1" id="Layer_1" xmlns="http://www.w3.org/2000/svg" xmlns:xlink="http://www.w3.org/1999/xlink" x="0px" y="0px"
	 viewBox="0 0 38.966 48.434" style="enable-background:new 0 0 38.966 48.434;" xml:space="preserve">
<g id="XMLID_5243_">
	<path id="XMLID_5121_" style="fill:#EF412E;" d="M23.872,23.566c0,2.14-2.108,4.062-4.494,4.151
		c-2.283,0.118-3.798-1.592-3.734-3.79c0.063-2.198,1.543-4.061,3.814-4.074S23.872,21.426,23.872,23.566z"/>
	<path id="XMLID_1151_" style="fill:#1C94D2;" d="M38.122,17.341L38.047,4.858c-0.017-1.303-1.346-2.118-2.99-1.818L21.58,3.044
		c-1.173-0.074-1.995,0.811-1.876,1.965l0.003,13.476c1.763,0.252,2.808,1.502,3.139,2.958l6.291-0.114
		c0.227-1.813,1.508-3.47,3.864-3.47c2.341,0,3.622,1.631,3.861,3.428C38.38,21.141,38.122,18.882,38.122,17.341z"/>
	<path id="XMLID_5308_" style="fill:#F9A61A;" d="M37.264,20.851c-0.572-1.982-3.103-3.167-4.651-2.483
		c-3.697,1.634,2.137,6.541-4.102,12.381c-2.844,2.662-6.652,3.662-10.097,3.161c-3.445-0.501-6.529-3.839-7.859-5.398
		c-1.791-2.099-1.554-5.282-1.544-5.383c0.204-1.647-0.738-3.177-2.171-3.404c-1.478-0.284-2.919,0.836-3.138,2.505
		c-0.033,0.253-0.786,5.884,3.147,10.035c0.754,0.796,1.65,1.538,2.705,2.235c1.11,0.766,3.739,2.684,3.507,3.798
		c-1.853,3.667-2.621,8.203-2.621,8.203l19.033,0.61c0,0,0.172-4.226-2.545-7.5c-0.693-0.882,2.223-2.43,3.289-3.309
		c1.003-0.827,2.017-1.736,2.972-2.74C38.529,28.11,37.351,21.153,37.264,20.851z"/>
	
		<path id="XMLID_707_" style="fill:#EF412E;stroke:#010101;stroke-width:2;stroke-linecap:round;stroke-linejoin:round;stroke-miterlimit:10;" d="
		M27.558,16.416c0,0,6.857-4.222,5.52-7.7c-1.337-3.478-5.52,0.401-5.52,0.401s-3.695-4.061-5.419-0.343
		S27.558,16.416,27.558,16.416"/>
	
		<path id="XMLID_706_" style="fill:none;stroke:#010101;stroke-width:2;stroke-linecap:round;stroke-linejoin:round;stroke-miterlimit:10;" d="
		M17.447,17.946V3.883C17.447,2.291,18.738,1,20.33,1h4.685h5.525h4.525c1.592,0,2.883,1.291,2.883,2.883v13.459
		c0,1.592,0.293,3.973-1.402,3.973"/>
	
		<path id="XMLID_5022_" style="fill:none;stroke:#010101;stroke-width:2;stroke-linecap:round;stroke-linejoin:round;stroke-miterlimit:10;" d="
		M17.447,17.946V3.883C17.447,2.291,18.738,1,20.33,1h4.685h5.525h4.525c1.592,0,2.883,1.291,2.883,2.883v13.459
		c0,1.592,0.293,3.973-1.402,3.973"/>
	
		<line id="XMLID_705_" style="fill:none;stroke:#010101;stroke-width:2;stroke-linecap:round;stroke-linejoin:round;stroke-miterlimit:10;" x1="29.412" y1="21.5" x2="23.866" y2="21.5"/>
	
		<ellipse id="XMLID_703_" style="fill:none;stroke:#010101;stroke-width:2.1176;stroke-linecap:round;stroke-linejoin:round;stroke-miterlimit:10;" cx="18.933" cy="22.725" rx="4.933" ry="4.779"/>
	
		<path id="XMLID_702_" style="fill:none;stroke:#010101;stroke-width:2;stroke-linecap:round;stroke-linejoin:round;stroke-miterlimit:10;" d="
		M36.433,20.48c-0.358-1.927-2.203-3.191-4.13-2.846c-1.929,0.343-3.218,2.192-2.89,4.124c0.007,0.039,0.646,3.987-1.592,6.561
		c-1.636,1.883-4.065,3.821-9.009,3.821s-7.367-1.939-9.004-3.821c-2.214-2.546-1.612-6.439-1.592-6.558
		c0.345-1.929-0.931-3.778-2.86-4.136c-1.934-0.353-3.799,0.917-4.159,2.856c-0.054,0.294-1.284,7.25,3.161,12.445
		c0.865,1.01,1.87,1.87,3.008,2.584c1.117,0.7,3.617,2.158,2.957,3.299c-2.303,3.981-2.23,8.626-2.23,8.626h21.319
		c0,0,0.034-4.739-2.41-8.746c-0.693-1.136,2.374-2.603,3.488-3.33c1.045-0.682,1.975-1.491,2.781-2.434
		C37.718,27.73,36.487,20.774,36.433,20.48z"/>
</g>
</svg>
