<?xml version="1.0" encoding="iso-8859-1"?>
<!-- Generator: Adobe Illustrator 19.0.0, SVG Export Plug-In . SVG Version: 6.00 Build 0)  -->
<svg version="1.1" id="Layer_1" xmlns="http://www.w3.org/2000/svg" xmlns:xlink="http://www.w3.org/1999/xlink" x="0px" y="0px"
	 viewBox="0 0 42.347 51.43" style="enable-background:new 0 0 42.347 51.43;" xml:space="preserve">
<g id="XMLID_5500_">
	<polygon id="XMLID_281_" style="fill:#F9A61A;" points="4.058,15.997 15.045,4.51 15.122,15.99 	"/>
	<polygon id="XMLID_1398_" style="fill:#F9A61A;" points="41.345,50.428 1.138,50.428 1.784,18.427 17.211,18.327 17.448,1.691 
		41.345,1.002 	"/>
	
		<polygon id="XMLID_2980_" style="fill:none;stroke:#010101;stroke-width:2.0037;stroke-linecap:round;stroke-linejoin:round;stroke-miterlimit:10;" points="
		41.345,50.428 1.138,50.428 1.002,15.612 14.962,15.612 14.962,1.224 41.345,1.002 	"/>
	
		<line id="XMLID_2979_" style="fill:none;stroke:#010101;stroke-width:2.0037;stroke-linecap:round;stroke-linejoin:round;stroke-miterlimit:10;" x1="14.962" y1="1.224" x2="1.002" y2="15.612"/>
	<g id="XMLID_2975_">
		<polygon id="XMLID_1477_" style="fill:#FFFFFF;" points="21.276,42.019 11.163,37.286 11.163,23.563 21.067,18.882 31.32,23.454 
			31.32,37.286 		"/>
	</g>
	<g id="XMLID_5174_">
		<polygon id="XMLID_5175_" style="fill:#1C94D2;" points="22.022,42.294 13.203,38.158 13.841,25.024 22.97,20.662 31.904,24.371 
			31.259,37.241 		"/>
	</g>
	<g id="XMLID_1530_">
		
			<polygon id="XMLID_1532_" style="fill:none;stroke:#010101;stroke-width:2.0037;stroke-linecap:round;stroke-linejoin:round;stroke-miterlimit:10;" points="
			21.276,42.019 11.163,37.286 11.163,23.563 21.067,18.882 31.32,23.454 31.32,37.286 		"/>
	</g>
	
		<polyline id="XMLID_1510_" style="fill:#FFFFFF;stroke:#010101;stroke-width:2.0037;stroke-linecap:round;stroke-linejoin:round;stroke-miterlimit:10;" points="
		21.276,28.065 21.276,42.019 11.163,37.286 11.163,23.563 	"/>
	
		<path id="XMLID_1478_" style="fill:none;stroke:#010101;stroke-width:2.0037;stroke-linecap:round;stroke-linejoin:round;stroke-miterlimit:10;" d="
		M21.276,28.065"/>
	
		<polyline id="XMLID_1489_" style="fill:none;stroke:#010101;stroke-width:2.0037;stroke-linecap:round;stroke-linejoin:round;stroke-miterlimit:10;" points="
		11.163,23.563 21.276,28.065 21.276,42.019 	"/>
	
		<path id="XMLID_1526_" style="fill:#FFFFFF;stroke:#010101;stroke-width:2.0037;stroke-linecap:round;stroke-linejoin:round;stroke-miterlimit:10;" d="
		M21.276,28.065"/>
	<line id="XMLID_1534_" style="fill:#1C94D2;" x1="32.683" y1="22.696" x2="19.058" y2="29.196"/>
</g>
</svg>
